<svg width="17" height="16" viewBox="0 0 17 16" fill="none" xmlns="http://www.w3.org/2000/svg">
<path d="M10.6668 5.33366C10.6668 6.53028 9.69678 7.50033 8.50016 7.50033C7.30355 7.50033 6.3335 6.53028 6.3335 5.33366C6.3335 4.13704 7.30355 3.16699 8.50016 3.16699C9.69678 3.16699 10.6668 4.13704 10.6668 5.33366Z" stroke="white" stroke-linecap="round"/>
<path d="M3.64695 11.6492C4.10219 9.54857 6.08455 9 8.23395 9H8.76605C10.9154 9 12.8978 9.54857 13.353 11.6492V11.6492C13.4565 12.1266 13.104 13 12.6156 13H4.38442C3.89597 13 3.5435 12.1266 3.64695 11.6492V11.6492Z" stroke="white" stroke-linecap="round"/>
</svg>
