<svg width="55" height="72" viewBox="0 0 55 72" fill="none" xmlns="http://www.w3.org/2000/svg">
<path d="M50.9259 31.9656V9.12684C50.9259 7.34622 49.4693 5.88964 47.6886 5.88964H32.39L32.3917 2.65243C32.3923 1.08861 31.2925 0 29.8432 0C29.6422 0 29.4345 0.0208889 29.2216 0.064926L3.95904 5.24087C2.21513 5.59711 0.786148 7.34611 0.78557 9.12687L0.750002 63.3549C0.748308 65.1355 2.17555 66.8846 3.91957 67.2425L29.1821 72.4184C29.395 72.4619 29.6028 72.4833 29.8037 72.4833C31.2535 72.4833 32.355 71.3948 32.3556 69.8309L32.3573 66.5937H47.6891C49.4698 66.5937 50.9263 65.1371 50.9263 63.3565L50.9258 40.5163C51.6484 40.3187 52.335 39.9562 52.9012 39.3894C54.6389 37.6517 54.6412 34.8316 52.9012 33.0933C52.3344 32.5265 51.6479 32.1629 50.9258 31.9664L50.9259 31.9656ZM29.9255 69.8284C29.9255 69.965 29.895 70.0333 29.8899 70.0412C29.8894 70.0412 29.8651 70.0542 29.8019 70.0542C29.7612 70.0542 29.7166 70.0491 29.6681 70.039L4.40547 64.863C3.79686 64.7383 3.17696 63.9783 3.17696 63.3561L3.21252 9.12815C3.21252 8.50486 3.83581 7.74269 4.44498 7.61795L29.7076 2.442C29.7567 2.43241 29.8013 2.42676 29.8425 2.42676C29.8916 2.42676 29.9176 2.43467 29.9215 2.43467H29.9221C29.9345 2.45104 29.9627 2.51879 29.9627 2.64977L29.9255 69.8284ZM47.6884 64.1635H32.358L32.3884 8.31674H47.6885C48.1272 8.31674 48.4981 8.68767 48.4981 9.12635V31.9911C47.8076 32.1944 47.1522 32.5478 46.6073 33.0926C44.8691 34.8309 44.8691 37.6493 46.6073 39.3882C47.1522 39.9331 47.8076 40.2865 48.4981 40.4897V63.3545C48.4992 63.7932 48.1283 64.1636 47.6896 64.1636L47.6884 64.1635ZM51.1847 37.6724C50.8019 38.0546 50.2944 38.2641 49.7535 38.2641C49.2127 38.2641 48.7051 38.0535 48.3223 37.6724C47.5331 36.8831 47.5331 35.5998 48.3223 34.8106C48.7051 34.4283 49.2132 34.2183 49.7547 34.2183C50.2938 34.2183 50.8019 34.4289 51.1847 34.8106C51.5669 35.1928 51.777 35.7009 51.7764 36.2406C51.7775 36.7804 51.5675 37.2896 51.1847 37.6724L51.1847 37.6724Z" fill="white"/>
</svg>
