<svg width="41" height="68" viewBox="0 0 41 68" fill="none" xmlns="http://www.w3.org/2000/svg">
<path d="M19.8654 0.250453C19.529 0.258766 19.212 0.4084 18.9945 0.661952C18.9945 0.661952 14.344 6.11832 9.68777 12.8457C7.35943 16.2093 5.02314 19.8899 3.25394 23.411C1.4842 26.9321 0.25 30.2609 0.25 33.1284C0.25 43.8231 9.06178 52.5183 19.9006 52.5183C30.7395 52.5183 39.5445 43.8235 39.5445 33.1284C39.5445 30.2609 38.3103 26.9321 36.5406 23.411C34.7708 19.8899 32.4345 16.2093 30.1067 12.8457C25.4505 6.11846 20.8 0.661952 20.8 0.661952H20.7989C20.5678 0.392306 20.2245 0.240584 19.8664 0.250453H19.8654ZM19.8928 3.34182C20.6642 4.25728 24.024 8.18462 28.1538 14.1503C30.4432 17.4578 32.7311 21.0735 34.4245 24.4428C36.118 27.8122 37.1937 30.9632 37.1937 33.1283C37.1937 38.831 34.3598 43.8589 30.0157 46.9558C31.1578 45.1509 31.8286 43.0274 31.8286 40.7481C31.8286 38.9317 31.0735 36.9538 30.0273 34.8723C28.9811 32.791 27.6131 30.6301 26.2494 28.6599C23.5225 24.7201 20.799 21.5295 20.799 21.5295H20.798C20.5668 21.2594 20.2235 21.1082 19.8655 21.118C19.529 21.1264 19.212 21.276 18.9946 21.5295C18.9946 21.5295 16.2713 24.7201 13.5442 28.6599C12.1805 30.6301 10.8119 32.791 9.76626 34.8723C8.72002 36.9536 7.96498 38.9321 7.96498 40.7481C7.96498 43.0232 8.63422 45.142 9.77314 46.9444C5.43701 43.8468 2.60898 38.8252 2.60898 33.1289C2.60898 30.9639 3.67525 27.8127 5.36867 24.4433C7.06209 21.074 9.34988 17.4583 11.6394 14.1508C15.767 8.18728 19.1195 4.2605 19.8935 3.34235L19.8928 3.34182ZM19.8928 24.2014C20.5763 25.0202 22.0965 26.7956 24.2974 29.9747C25.6222 31.8883 26.9417 33.9728 27.9116 35.9029C28.8815 37.8331 29.4686 39.6328 29.4686 40.7467C29.4686 45.6462 25.7249 49.6509 20.8943 50.1388C20.5631 50.1565 20.2351 50.1892 19.8992 50.1892C19.5638 50.1892 19.2368 50.1586 18.9061 50.1388C14.075 49.6509 10.3228 45.6457 10.3228 40.7467C10.3228 39.6328 10.9125 37.8331 11.8824 35.9029C12.8523 33.9727 14.1698 31.8882 15.4945 29.9747C17.6944 26.7981 19.2078 25.0223 19.8928 24.2019V24.2014ZM9.3745 57.7752C8.72369 57.8105 8.22506 58.3586 8.25876 59.0003C8.29193 59.6425 8.84586 60.1366 9.49667 60.1054H32.3851C33.0354 60.1033 33.5619 59.5822 33.5619 58.9405C33.5619 58.2984 33.0354 57.7773 32.3851 57.7752H9.49667C9.4556 57.7731 9.41506 57.7731 9.37451 57.7752H9.3745ZM2.33935 65.4221C1.69801 65.4366 1.18621 65.9536 1.18621 66.5859C1.18621 67.2182 1.69801 67.7351 2.33935 67.7497H39.5432C39.8607 67.757 40.1676 67.6375 40.3946 67.4182C40.6221 67.1995 40.75 66.8992 40.75 66.5859C40.75 66.2726 40.622 65.9723 40.3946 65.7535C40.1676 65.5343 39.8607 65.4148 39.5432 65.4221H2.33935Z" fill="white"/>
</svg>
