<svg width="63" height="68" viewBox="0 0 63 68" fill="none" xmlns="http://www.w3.org/2000/svg">
<path d="M59.9626 11.4998C59.8228 11.3608 59.6488 11.2609 59.4583 11.2103C59.2677 11.1596 59.0672 11.16 58.8768 11.2112C58.6863 11.2625 58.5128 11.3629 58.3734 11.5024C58.234 11.6419 58.1338 11.8156 58.0827 12.0061L56.5392 17.7672L52.8413 18.5232L50.0187 16.0201L51.5588 10.2623C51.6098 10.0719 51.6097 9.87139 51.5588 9.68094C51.5078 9.4905 51.4077 9.31679 51.2685 9.17722C51.1292 9.03764 50.9558 8.93711 50.7655 8.88568C50.5751 8.83426 50.3747 8.83375 50.1841 8.8842C48.5221 9.32768 47.0008 10.1878 45.764 11.3833C44.5273 12.5788 43.6159 14.07 43.1163 15.716C42.6166 17.3619 42.5452 19.1081 42.9087 20.7893C43.2722 22.4706 44.0586 24.0313 45.1936 25.3238L40.5788 42.5498C39.9327 42.2124 39.2586 41.9316 38.5639 41.7106L29.2501 38.798V34.8931C31.2817 33.8574 32.9874 32.2802 34.1787 30.3357C35.3699 28.3912 36.0003 26.1552 36.0001 23.8748V22.7498C36.7524 22.7523 37.4838 22.5025 38.0774 22.0404C38.6711 21.5783 39.0926 20.9305 39.2748 20.2006C39.457 19.4706 39.3892 18.7007 39.0823 18.0139C38.7754 17.327 38.2471 16.7629 37.5818 16.4116C37.6469 16.3181 37.7062 16.2208 37.7596 16.1202L37.8721 15.8885C38.0863 15.4634 38.2077 14.9977 38.2281 14.5222C38.2485 14.0466 38.1674 13.5722 37.9904 13.1304C37.8133 12.6886 37.5443 12.2896 37.2011 11.9597C36.858 11.6299 36.4485 11.3769 36.0001 11.2175V5.46983C35.9966 4.69053 35.7248 3.93621 35.2304 3.33382C34.7359 2.73142 34.0491 2.31772 33.2855 2.16233L25.604 0.617706C24.2933 0.365713 22.9467 0.365713 21.6361 0.617706L13.9636 2.16233C13.2001 2.31795 12.5135 2.73175 12.0194 3.33412C11.5252 3.93649 11.2535 4.69068 11.2501 5.46983V11.2175C10.8015 11.3766 10.3918 11.6293 10.0484 11.9589C9.70501 12.2885 9.43566 12.6874 9.25828 13.1291C9.0809 13.5708 8.99954 14.0452 9.01961 14.5207C9.03968 14.9963 9.16073 15.4621 9.3747 15.8873L9.4872 16.1123C9.53997 16.214 9.59818 16.3128 9.66157 16.4082C8.99398 16.7589 8.46357 17.3236 8.1555 18.0119C7.84742 18.7002 7.77955 19.472 7.96278 20.2035C8.146 20.935 8.5697 21.5837 9.16585 22.0454C9.762 22.5072 10.496 22.7553 11.2501 22.7498V23.8748C11.2526 26.1535 11.8841 28.3872 13.0751 30.3297C14.2662 32.2723 15.9704 33.8483 18.0001 34.8841V38.798L8.68845 41.7106C6.1657 42.4873 3.9594 44.0542 2.39502 46.1803C0.830643 48.3064 -0.00896138 50.879 7.21382e-05 53.5186V66.6248C7.21382e-05 66.9232 0.118599 67.2093 0.329577 67.4203C0.540556 67.6313 0.826704 67.7498 1.12507 67.7498H46.1251C46.4234 67.7498 46.7096 67.6313 46.9206 67.4203C47.1316 67.2093 47.2501 66.9232 47.2501 66.6248V64.3748H45.0001V65.4998H39.3751V62.1248H37.1251V65.4998H10.1251V53.1248H7.87507V65.4998H2.25007V53.5186C2.24241 51.3592 2.92918 49.2546 4.20901 47.5153C5.48884 45.7761 7.29391 44.4943 9.35782 43.8593L12.3751 42.9155V49.7498C12.3769 51.2411 12.9701 52.6708 14.0246 53.7253C15.0791 54.7798 16.5088 55.373 18.0001 55.3748H29.2501C30.0258 55.3732 30.7927 55.2102 31.502 54.896C32.2113 54.5818 32.8474 54.1235 33.3698 53.5501C33.4008 56.1922 34.4663 58.717 36.3376 60.5825C36.4774 60.7215 36.6513 60.8214 36.8419 60.872C37.0325 60.9227 37.233 60.9223 37.4234 60.871C37.6138 60.8198 37.7874 60.7193 37.9268 60.5798C38.0661 60.4403 38.1664 60.2667 38.2175 60.0762L39.761 54.3151L43.4577 53.5579L46.2815 56.0611L44.7379 61.8222C44.6932 61.9889 44.6875 62.1637 44.7212 62.3329C44.7548 62.5022 44.827 62.6615 44.932 62.7984C45.0371 62.9353 45.1722 63.0463 45.327 63.1226C45.4818 63.1989 45.6521 63.2386 45.8247 63.2386C45.9215 63.2384 46.0179 63.2259 46.1116 63.2015C47.7739 62.7585 49.2957 61.8986 50.5328 60.7032C51.77 59.5078 52.6816 58.0164 53.1813 56.3703C53.681 54.7241 53.7523 52.9777 53.3885 51.2963C53.0246 49.6148 52.2377 48.0541 51.1021 46.7618L56.0656 28.2365C57.6957 27.6851 59.1581 26.7267 60.3142 25.452C61.4703 24.1774 62.282 22.6288 62.6722 20.9528C63.0625 19.2767 63.0184 17.5289 62.5442 15.8746C62.0701 14.2204 61.1815 12.7146 59.9626 11.4998ZM39.0702 44.3285C37.3385 45.1773 35.8837 46.5007 34.8751 48.1445V42.9155L37.8912 43.8593C38.2937 43.9908 38.6874 44.1475 39.0702 44.3285ZM29.3165 41.1785L28.448 45.7088L25.4397 43.9088L28.4389 40.9096L29.3165 41.1785ZM12.7126 15.7163C12.4727 15.7598 12.2251 15.7242 12.0072 15.6149C11.7893 15.5055 11.6128 15.3283 11.5043 15.11L11.3918 14.885C11.3125 14.7264 11.2717 14.5513 11.2729 14.3739C11.2741 14.1966 11.3172 14.022 11.3987 13.8645C11.4802 13.707 11.5978 13.571 11.7419 13.4676C11.8859 13.3642 12.0524 13.2963 12.2277 13.2695L22.0917 11.753C23.1117 11.5955 24.1497 11.5955 25.1697 11.753L35.0337 13.2695C35.2088 13.2963 35.3751 13.364 35.519 13.4672C35.663 13.5704 35.7805 13.7062 35.8621 13.8634C35.9437 14.0206 35.987 14.1949 35.9885 14.372C35.99 14.5492 35.9496 14.7241 35.8707 14.8827L35.7582 15.1145C35.6494 15.3322 35.473 15.5088 35.2553 15.6177C35.0377 15.7266 34.7906 15.762 34.5511 15.7186L25.4453 14.0615C24.2484 13.8432 23.022 13.8432 21.8251 14.0615L12.7126 15.7163ZM36.0001 20.4998V18.2498C36.2984 18.2498 36.5846 18.3684 36.7956 18.5793C37.0065 18.7903 37.1251 19.0765 37.1251 19.3748C37.1251 19.6732 37.0065 19.9593 36.7956 20.1703C36.5846 20.3813 36.2984 20.4998 36.0001 20.4998ZM33.7501 5.46983V10.7945L30.8532 10.3445L32.0795 4.20983L32.84 4.36283C33.096 4.41418 33.3265 4.55241 33.4923 4.75413C33.6581 4.95586 33.7492 5.20868 33.7501 5.46983ZM22.0703 2.82833C23.094 2.6309 24.146 2.6309 25.1697 2.82833L29.8745 3.77333L28.6268 10.0092L25.5072 9.52883C24.2599 9.33533 22.9902 9.33533 21.743 9.52883L18.6233 10.0092L17.3757 3.77108L22.0703 2.82833ZM14.4091 4.36733L15.1707 4.21433L16.3969 10.349L13.5001 10.799V5.46983C13.5019 5.20962 13.5933 4.95797 13.7588 4.75719C13.9244 4.55642 14.154 4.41875 14.4091 4.36733ZM10.1251 19.3748C10.1251 19.0765 10.2436 18.7903 10.4546 18.5793C10.6656 18.3684 10.9517 18.2498 11.2501 18.2498V20.4998C10.9517 20.4998 10.6656 20.3813 10.4546 20.1703C10.2436 19.9593 10.1251 19.6732 10.1251 19.3748ZM13.5001 23.8748V17.8583L22.2166 16.2743C23.1464 16.105 24.0992 16.105 25.0291 16.2743L33.7501 17.8583V23.8748C33.7501 26.5601 32.6833 29.1355 30.7845 31.0343C28.8857 32.9331 26.3104 33.9998 23.6251 33.9998C20.9398 33.9998 18.3644 32.9331 16.4656 31.0343C14.5668 29.1355 13.5001 26.5601 13.5001 23.8748ZM23.6251 36.2498C24.7665 36.2478 25.9022 36.0884 27.0001 35.7762V39.1591L23.6251 42.5341L20.2501 39.1591V35.7706C21.3475 36.0857 22.4833 36.247 23.6251 36.2498ZM18.8112 40.9017L21.8104 43.8998L18.8022 45.6998L17.9337 41.1695L18.8112 40.9017ZM29.2501 53.1248H18.0001C17.105 53.1248 16.2465 52.7692 15.6136 52.1363C14.9807 51.5034 14.6251 50.6449 14.6251 49.7498V42.2123L15.7714 41.8535L16.8964 47.7125C16.9303 47.8908 17.0069 48.0583 17.1195 48.2007C17.2322 48.343 17.3776 48.456 17.5434 48.5299C17.7092 48.6039 17.8905 48.6366 18.0717 48.6253C18.2529 48.614 18.4286 48.559 18.5839 48.4651L23.6251 45.4366L28.6707 48.464C28.826 48.5579 29.0018 48.6129 29.183 48.6242C29.3642 48.6355 29.5454 48.6027 29.7112 48.5288C29.877 48.4549 30.0224 48.3419 30.1351 48.1995C30.2478 48.0572 30.3243 47.8897 30.3582 47.7113L31.4832 41.8523L32.6251 42.2123V49.7498C32.6251 50.6449 32.2695 51.5034 31.6366 52.1363C31.0036 52.7692 30.1452 53.1248 29.2501 53.1248ZM60.4126 20.6945C60.0519 22.0274 59.348 23.2425 58.371 24.2185C57.3941 25.1944 56.1783 25.8971 54.845 26.2565C54.6544 26.3077 54.4808 26.4082 54.3414 26.5478C54.202 26.6874 54.1017 26.8612 54.0507 27.0518L48.7632 46.781C48.7122 46.9715 48.7121 47.1721 48.7631 47.3626C48.814 47.5531 48.9142 47.7269 49.0535 47.8666C49.9032 48.7145 50.5474 49.7458 50.9369 50.8813C51.3264 52.0168 51.4508 53.2263 51.3005 54.4173C51.1502 55.6083 50.7292 56.7491 50.0698 57.7522C49.4105 58.7553 48.5302 59.5942 47.4965 60.2044L48.6305 55.9722C48.6848 55.7706 48.6821 55.5579 48.6225 55.3579C48.5629 55.1578 48.4488 54.9782 48.2929 54.8393L44.5276 51.5014C44.3219 51.319 44.0566 51.2181 43.7817 51.218C43.7062 51.2183 43.6308 51.2259 43.5567 51.2405L38.6281 52.2529C38.4236 52.2948 38.2348 52.3928 38.0828 52.5358C37.9308 52.6789 37.8216 52.8614 37.7675 53.063L36.6346 57.2952C36.0444 56.25 35.7014 55.0835 35.6318 53.8851C35.5622 52.6868 35.7679 51.4885 36.2332 50.3819C36.6984 49.2754 37.4108 48.2901 38.3158 47.5015C39.2208 46.713 40.2943 46.1421 41.4541 45.8326C41.6446 45.7813 41.8183 45.6808 41.9577 45.5412C42.0971 45.4016 42.1973 45.2278 42.2483 45.0372L47.5358 25.307C47.5869 25.1164 47.5869 24.9158 47.536 24.7253C47.485 24.5348 47.3849 24.361 47.2456 24.2213C46.3961 23.3732 45.7521 22.3418 45.3628 21.2063C44.9736 20.0708 44.8494 18.8613 44.9998 17.6704C45.1502 16.4795 45.5712 15.3388 46.2305 14.3357C46.8899 13.3326 47.7701 12.4938 48.8037 11.8835L47.6618 16.1123C47.6077 16.3137 47.6105 16.5262 47.6701 16.7261C47.7297 16.9259 47.8437 17.1053 47.9993 17.2441L51.7636 20.582C51.8941 20.6978 52.0497 20.7816 52.2182 20.8269C52.3867 20.8722 52.5635 20.8777 52.7345 20.843L57.6642 19.8305C57.8688 19.7885 58.0577 19.6904 58.2097 19.5471C58.3617 19.4038 58.4708 19.2211 58.5248 19.0193L59.6588 14.7882C60.6743 16.5821 60.9449 18.703 60.4126 20.6945Z" fill="white"/>
</svg>
